{
  "contacts": [
    {
      "id": "123HG456",
      "name": "Lincoln",
      "company": "Google",
      "email": "Lincoln@gmail.com",
      "title": "Google",
      "mobile": "904312341",
      "photo": "https://images.freeimages.com/fic/images/icons/61/dragon_soft/512/user.png",
      "groupId": "3"
    },
    {
      "id": "145HG126",
      "name": "Quân",
      "company": "Tesla",
      "email": "Quan@gmail.com",
      "title": "freelaner",
      "mobile": 982131312,
      "photo": "https://upload.wikimedia.org/wikipedia/commons/thumb/1/12/User_icon_2.svg/480px-User_icon_2.svg.png",
      "groupId": "2"
    },
    {
      "id": "245HG366",
      "name": "Nghĩa",
      "company": "Samsung",
      "email": "Nghia@gmail.com",
      "title": "Data Analyst",
      "mobile": "087423423",
      "photo": "https://cdn-icons-png.flaticon.com/512/219/219986.png",
      "groupId": "1"
    },
    {
      "title": "Freelancer",
      "company": "Ton Duc Thang University",
      "mobile": 779754680,
      "email": "admin@gmail.com",
      "photo": "https://cdn-icons-png.flaticon.com/512/4721/4721796.png",
      "name": "Mary",
      "id": "V32p0v7",
      "groupId": "2"
    },
    {
      "name": "Maika",
      "photo": "https://cdn-icons-png.flaticon.com/512/219/219969.png",
      "email": "Maika@gmail.com",
      "mobile": 9021312314,
      "company": "DXC Company",
      "title": "Hr",
      "groupId": "3",
      "id": "7VJ3D_a"
    },
    {
      "name": "Dĩnh",
      "photo": "https://cdn-icons-png.flaticon.com/512/219/219988.png",
      "email": "Dinh@gmail.com",
      "mobile": 902325325,
      "company": "Apple Company",
      "title": "AI ",
      "groupId": "2",
      "id": "noa0S-B"
    },
    {
      "name": "Anna",
      "photo": "https://cdn-icons-png.flaticon.com/512/65/65581.png",
      "email": "Anna@gmail.com",
      "mobile": 892409221,
      "company": "Ton Duc Thang University",
      "title": "Teacher",
      "groupId": "1",
      "id": "g29nA4I"
    }
  ],
  "groups": [
    {
      "id": "1",
      "name": "Friend"
    },
    {
      "id": "2",
      "name": "Colleague"
    },
    {
      "id": "3",
      "name": "Family"
    }
  ]
}